…
In theory, these can be used with the [*tidytext*](https://cran.r-project.org/web/packages/tidytext) package to perform a sentiment analysis, though the limited amount of text is a problem.

``` r
library(tidytext)
(five_stars_and_cheap_sentiments <- five_stars_and_cheap_reviews %>% 
  select(business_id, review_id, rating, text) %>% 
  unnest_tokens(word, text) %>% 
  anti_join(get_stopwords(), by = "word") %>% 
  inner_join(get_sentiments("bing"))
)
#> Joining, by = "word"
#> # A tibble: 30 x 5
#>    business_id           review_id             rating word       sentiment
#>    <chr>                 <chr>                 <ord>  <chr>      <chr>    
#>  1 yII2VaCD9MnKmNKqEzOY… XhjsOuc2tAJ21Lh3ypsJ… 4      fast       positive 
#>  2 yII2VaCD9MnKmNKqEzOY… XhjsOuc2tAJ21Lh3ypsJ… 4      clean      positive 
#>  3 yII2VaCD9MnKmNKqEzOY… XhjsOuc2tAJ21Lh3ypsJ… 4      affordable positive 
#>  4 yII2VaCD9MnKmNKqEzOY… eSPWyeP6Tv5Whj0hvdNv… 5      recommend… positive 
#>  5 yII2VaCD9MnKmNKqEzOY… eSPWyeP6Tv5Whj0hvdNv… 5      impressed  positive 
#>  6 yII2VaCD9MnKmNKqEzOY… eSPWyeP6Tv5Whj0hvdNv… 5      amazing    positive 
#>  7 yII2VaCD9MnKmNKqEzOY… eSPWyeP6Tv5Whj0hvdNv… 5      work       positive 
#>  8 yII2VaCD9MnKmNKqEzOY… I31QLakCUD999rTygBTF… 5      work       positive 
#>  9 yII2VaCD9MnKmNKqEzOY… I31QLakCUD999rTygBTF… 5      like       positive 
#> 10 rCxfVI-UQGzgUPkJDiC5… xIWyHJXOPRmDW29pYA68… 5      nice       positive 
#> # ... with 20 more rows
```
…
